sim/apb_uart_tb.vcd
$date
	Sat Jun  6 06:47:02 2026
$end
$version
	Icarus Verilog
$end
$timescale
	1s
$end
$scope module apb_uart_tb $end
$var wire 1 ! PREADY $end
$var wire 1 " w1 $end
$var wire 1 # tx $end
$var wire 1 $ irq $end
$var wire 8 % PRDATA [7:0] $end
$var reg 8 & PADDR [7:0] $end
$var reg 1 ' PCLK $end
$var reg 1 ( PENABLE $end
$var reg 1 ) PRESETn $end
$var reg 1 * PSEL $end
$var reg 8 + PWDATA [7:0] $end
$var reg 1 , PWRITE $end
$var reg 1 - rx $end
$scope module u_apb_uart $end
$var wire 8 . PADDR [7:0] $end
$var wire 1 ' PCLK $end
$var wire 1 ( PENABLE $end
$var wire 8 / PRDATA [7:0] $end
$var wire 1 ! PREADY $end
$var wire 1 ) PRESETn $end
$var wire 1 * PSEL $end
$var wire 8 0 PWDATA [7:0] $end
$var wire 1 , PWRITE $end
$var wire 1 1 apb_read $end
$var wire 1 2 apb_write $end
$var wire 1 " rx $end
$var wire 8 3 uart_rdata [7:0] $end
$var wire 1 # tx $end
$var wire 1 $ irq $end
$scope module u_uart $end
$var wire 3 4 addr [2:0] $end
$var wire 1 ' clk $end
$var wire 1 * cs $end
$var wire 1 1 rd $end
$var wire 1 ) rstn $end
$var wire 1 " rx $end
$var wire 8 5 wdata [7:0] $end
$var wire 1 2 wr $end
$var wire 1 6 tx_fifo_wr $end
$var wire 1 7 tx_fifo_rd $end
$var wire 1 8 tx_fifo_full $end
$var wire 1 9 tx_fifo_empty $end
$var wire 8 : tx_fifo_dout [7:0] $end
$var wire 8 ; tx_fifo_data_in [7:0] $end
$var wire 5 < tx_fifo_count [4:0] $end
$var wire 1 = tx_fifo_clear $end
$var wire 1 > tx_ctrl_start $end
$var wire 8 ? tx_ctrl_data [7:0] $end
$var wire 1 @ tx_busy $end
$var wire 1 # tx $end
$var wire 1 A rx_uart_valid $end
$var wire 8 B rx_uart_data [7:0] $end
$var wire 1 C rx_fifo_rd $end
$var wire 1 D rx_fifo_full $end
$var wire 1 E rx_fifo_empty $end
$var wire 8 F rx_fifo_dout [7:0] $end
$var wire 5 G rx_fifo_count [4:0] $end
$var wire 1 H rx_fifo_clear $end
$var wire 8 I rdata [7:0] $end
$var wire 1 J parity_error $end
$var wire 8 K lsr [7:0] $end
$var wire 8 L lcr [7:0] $end
$var wire 1 $ irq $end
$var wire 8 M iir [7:0] $end
$var wire 8 N ier [7:0] $end
$var wire 1 O framing_error $end
$var wire 8 P fcr [7:0] $end
$var wire 16 Q divisor [15:0] $end
$var wire 1 R baud_clk $end
$scope module u_baud_gen $end
$var wire 1 ' clk $end
$var wire 1 ) rstn $end
$var wire 16 S div [15:0] $end
$var parameter 32 T DIV_WIDTH $end
$var reg 1 R baud_clk $end
$var reg 16 U cnt [15:0] $end
$upscope $end
$scope module u_reg_file $end
$var wire 3 V addr [2:0] $end
$var wire 1 ' clk $end
$var wire 1 * cs $end
$var wire 1 $ irq $end
$var wire 1 W irq_next $end
$var wire 1 1 rd $end
$var wire 1 ) rstn $end
$var wire 8 X wdata [7:0] $end
$var wire 1 2 wr $end
$var wire 1 8 tx_fifo_full $end
$var wire 1 9 tx_fifo_empty $end
$var wire 1 @ tx_busy $end
$var wire 1 D rx_fifo_full $end
$var wire 1 E rx_fifo_empty $end
$var wire 8 Y rx_fifo_data_out [7:0] $end
$var wire 1 J parity_error $end
$var wire 1 O framing_error $end
$var wire 1 Z dlab $end
$var reg 16 [ divisor [15:0] $end
$var reg 8 \ fcr [7:0] $end
$var reg 1 ] framing_error_latched $end
$var reg 8 ^ ier [7:0] $end
$var reg 8 _ iir [7:0] $end
$var reg 1 ` irq_r $end
$var reg 8 a lcr [7:0] $end
$var reg 8 b lsr [7:0] $end
$var reg 1 c parity_error_latched $end
$var reg 1 d rbr_pending $end
$var reg 8 e rdata [7:0] $end
$var reg 1 H rx_fifo_clear $end
$var reg 1 C rx_fifo_rd $end
$var reg 1 = tx_fifo_clear $end
$var reg 8 f tx_fifo_data_in [7:0] $end
$var reg 1 6 tx_fifo_wr $end
$upscope $end
$scope module u_rx_fifo $end
$var wire 1 H clear $end
$var wire 1 ' clk $end
$var wire 1 C rd_en $end
$var wire 1 ) rstn $end
$var wire 1 A wr_en $end
$var wire 1 D full $end
$var wire 1 E empty $end
$var wire 8 g data_in [7:0] $end
$var parameter 32 h ADDR_WIDTH $end
$var parameter 32 i DATA_WIDTH $end
$var parameter 32 j DEPTH $end
$var reg 5 k count [4:0] $end
$var reg 8 l data_out [7:0] $end
$var reg 4 m rd_pntr [3:0] $end
$var reg 4 n wr_pntr [3:0] $end
$upscope $end
$scope module u_tx_controller $end
$var wire 1 ' clk $end
$var wire 1 ) rstn $end
$var wire 1 9 tx_fifo_empty $end
$var wire 8 o tx_fifo_dout [7:0] $end
$var wire 1 @ tx_busy $end
$var parameter 2 p IDLE $end
$var parameter 2 q LOAD $end
$var parameter 2 r SEND $end
$var parameter 2 s WAIT $end
$var reg 2 t state [1:0] $end
$var reg 8 u tx_data [7:0] $end
$var reg 1 7 tx_fifo_rd $end
$var reg 1 > tx_start $end
$upscope $end
$scope module u_tx_fifo $end
$var wire 1 = clear $end
$var wire 1 ' clk $end
$var wire 8 v data_in [7:0] $end
$var wire 1 7 rd_en $end
$var wire 1 ) rstn $end
$var wire 1 6 wr_en $end
$var wire 1 8 full $end
$var wire 1 9 empty $end
$var parameter 32 w ADDR_WIDTH $end
$var parameter 32 x DATA_WIDTH $end
$var parameter 32 y DEPTH $end
$var reg 5 z count [4:0] $end
$var reg 8 { data_out [7:0] $end
$var reg 4 | rd_pntr [3:0] $end
$var reg 4 } wr_pntr [3:0] $end
$upscope $end
$scope module u_uart_rx $end
$var wire 1 ' clk $end
$var wire 16 ~ divisor [15:0] $end
$var wire 1 !" parity_en $end
$var wire 1 "" parity_type $end
$var wire 1 ) rstn $end
$var wire 1 " rx $end
$var parameter 3 #" DATA $end
$var parameter 32 $" DIV_WIDTH $end
$var parameter 3 %" IDLE $end
$var parameter 3 &" PARITY $end
$var parameter 3 '" START $end
$var parameter 3 (" STOP $end
$var reg 3 )" bit_cnt [2:0] $end
$var reg 1 *" calculated_parity_bit $end
$var reg 16 +" cnt [15:0] $end
$var reg 1 O framing_error $end
$var reg 1 J parity_error $end
$var reg 8 ," rx_data [7:0] $end
$var reg 1 -" rx_parity_bit $end
$var reg 8 ." rx_shift_reg [7:0] $end
$var reg 1 /" rx_sync0 $end
$var reg 1 0" rx_sync1 $end
$var reg 1 A rx_valid $end
$var reg 3 1" state [2:0] $end
$upscope $end
$scope module u_uart_tx $end
$var wire 1 R baud_clk $end
$var wire 1 ' clk $end
$var wire 1 2" parity_en $end
$var wire 1 3" parity_type $end
$var wire 1 ) rstn $end
$var wire 8 4" tx_data [7:0] $end
$var wire 1 > tx_start $end
$var parameter 3 5" DATA $end
$var parameter 32 6" DATA_WIDTH $end
$var parameter 3 7" IDLE $end
$var parameter 3 8" PARITY $end
$var parameter 3 9" START $end
$var parameter 3 :" STOP $end
$var reg 3 ;" bit_cnt [2:0] $end
$var reg 1 <" parity_bit $end
$var reg 8 =" shift_reg [7:0] $end
$var reg 3 >" state [2:0] $end
$var reg 1 # tx $end
$var reg 1 @ tx_busy $end
$var reg 1 ?" tx_start_latch $end
$upscope $end
$upscope $end
$upscope $end
$scope task apb_write $end
$var reg 3 @" addr [2:0] $end
$var reg 8 A" data [7:0] $end
$upscope $end
$upscope $end
$enddefinitions $end
$comment Show the parameter values. $end
$dumpall
b100 :"
b1 9"
b11 8"
b0 7"
b1000 6"
b10 5"
b100 ("
b1 '"
b11 &"
b0 %"
b10000 $"
b10 #"
b10000 y
b1000 x
b100 w
b1 s
b11 r
b10 q
b0 p
b10000 j
b1000 i
b100 h
b10000 T
$end
#0
$dumpvars
bx A"
bx @"
0?"
b0 >"
b0 ="
0<"
b0 ;"
b0 4"
03"
02"
b0 1"
10"
1/"
b0 ."
0-"
b0 ,"
b0 +"
0*"
b0 )"
0""
0!"
b110110010 ~
b0 }
b0 |
b0 {
b0 z
b0 v
b0 u
b0 t
b0 o
b0 n
b0 m
b0 l
b0 k
b0 g
b0 f
b0 e
0d
0c
b1100000 b
b11 a
0`
b1 _
b0 ^
0]
b11000000 \
b110110010 [
0Z
b0 Y
b0 X
0W
b0 V
b0 U
b110110010 S
0R
b110110010 Q
b11000000 P
0O
b0 N
b1 M
b11 L
b1100000 K
0J
b0 I
0H
b0 G
b0 F
1E
0D
0C
b0 B
0A
0@
b0 ?
0>
0=
b0 <
b0 ;
b0 :
19
08
07
06
b0 5
b0 4
b0 3
02
01
b0 0
b0 /
b0 .
1-
0,
b0 +
0*
0)
0(
0'
b0 &
b0 %
0$
1#
1"
1!
$end
#5
1'
#10
0'
#15
1'
#20
0'
1)
#25
b1 U
1'
#30
0'
#35
b10 U
1'
#40
0'
b10100101 A"
b0 @"
#45
12
b11 U
1,
1(
1*
b10100101 +
b10100101 0
b10100101 5
b10100101 X
1'
#50
0'
#55
02
16
b10100101 ;
b10100101 f
b10100101 v
b100 U
0(
0*
b1010101 A"
1'
#60
0'
#65
12
b0 K
b0 b
09
b1 <
b1 z
b1 }
b101 U
06
1(
1*
b1010101 +
b1010101 0
b1010101 5
b1010101 X
1'
#70
0'
#75
02
16
b1010101 ;
b1010101 f
b1010101 v
b110 U
b1 t
17
0(
0*
b111100 A"
1'
#80
0'
#85
12
b10 t
07
b1 |
b10100101 :
b10100101 o
b10100101 {
b10 }
b111 U
06
1(
1*
b111100 +
b111100 0
b111100 5
b111100 X
1'
#90
0'
#95
02
16
b111100 ;
b111100 f
b111100 v
b1000 U
b11 t
b10100101 ?
b10100101 u
b10100101 4"
0(
0*
b11110000 A"
1'
#100
0'
#105
12
b0 t
1>
b10 <
b10 z
b11 }
b1001 U
06
1(
1*
b11110000 +
b11110000 0
b11110000 5
b11110000 X
1'
#110
0'
#115
02
1@
16
b11110000 ;
b11110000 f
b11110000 v
b1010 U
b1 t
17
0>
1?"
0(
0*
1'
#120
0'
#125
07
b10 |
b1010101 :
b1010101 o
b1010101 {
b100 }
b1011 U
06
1'
#130
0'
#135
b1100 U
1'
#140
0'
#145
b1101 U
1'
#150
0'
#155
b1110 U
1'
#160
0'
#165
b1111 U
1'
#170
0'
#175
b10000 U
1'
#180
0'
#185
b10001 U
1'
#190
0'
#195
b10010 U
1'
#200
0'
#205
b10011 U
1'
#210
0'
#215
b10100 U
1'
#220
0'
#225
b10101 U
1'
#230
0'
#235
b10110 U
1'
#240
0'
#245
b10111 U
1'
#250
0'
#255
b11000 U
1'
#260
0'
#265
b11001 U
1'
#270
0'
#275
b11010 U
1'
#280
0'
#285
b11011 U
1'
#290
0'
#295
b11100 U
1'
#300
0'
#305
b11101 U
1'
#310
0'
#315
b11110 U
1'
#320
0'
#325
b11111 U
1'
#330
0'
#335
b100000 U
1'
#340
0'
#345
b100001 U
1'
#350
0'
#355
b100010 U
1'
#360
0'
#365
b100011 U
1'
#370
0'
#375
b100100 U
1'
#380
0'
#385
b100101 U
1'
#390
0'
#395
b100110 U
1'
#400
0'
#405
b100111 U
1'
#410
0'
#415
b101000 U
1'
#420
0'
#425
b101001 U
1'
#430
0'
#435
b101010 U
1'
#440
0'
#445
b101011 U
1'
#450
0'
#455
b101100 U
1'
#460
0'
#465
b101101 U
1'
#470
0'
#475
b101110 U
1'
#480
0'
#485
b101111 U
1'
#490
0'
#495
b110000 U
1'
#500
0'
#505
b110001 U
1'
#510
0'
#515
b110010 U
1'
#520
0'
#525
b110011 U
1'
#530
0'
#535
b110100 U
1'
#540
0'
#545
b110101 U
1'
#550
0'
#555
b110110 U
1'
#560
0'
#565
b110111 U
1'
#570
0'
#575
b111000 U
1'
#580
0'
#585
b111001 U
1'
#590
0'
#595
b111010 U
1'
#600
0'
#605
b111011 U
1'
#610
0'
#615
b111100 U
1'
#620
0'
#625
b111101 U
1'
#630
0'
#635
b111110 U
1'
#640
0'
#645
b111111 U
1'
#650
0'
#655
b1000000 U
1'
#660
0'
#665
b1000001 U
1'
#670
0'
#675
b1000010 U
1'
#680
0'
#685
b1000011 U
1'
#690
0'
#695
b1000100 U
1'
#700
0'
#705
b1000101 U
1'
#710
0'
#715
b1000110 U
1'
#720
0'
#725
b1000111 U
1'
#730
0'
#735
b1001000 U
1'
#740
0'
#745
b1001001 U
1'
#750
0'
#755
b1001010 U
1'
#760
0'
#765
b1001011 U
1'
#770
0'
#775
b1001100 U
1'
#780
0'
#785
b1001101 U
1'
#790
0'
#795
b1001110 U
1'
#800
0'
#805
b1001111 U
1'
#810
0'
#815
b1010000 U
1'
#820
0'
#825
b1010001 U
1'
#830
0'
#835
b1010010 U
1'
#840
0'
#845
b1010011 U
1'
#850
0'
#855
b1010100 U
1'
#860
0'
#865
b1010101 U
1'
#870
0'
#875
b1010110 U
1'
#880
0'
#885
b1010111 U
1'
#890
0'
#895
b1011000 U
1'
#900
0'
#905
b1011001 U
1'
#910
0'
#915
b1011010 U
1'
#920
0'
#925
b1011011 U
1'
#930
0'
#935
b1011100 U
1'
#940
0'
#945
b1011101 U
1'
#950
0'
#955
b1011110 U
1'
#960
0'
#965
b1011111 U
1'
#970
0'
#975
b1100000 U
1'
#980
0'
#985
b1100001 U
1'
#990
0'
#995
b1100010 U
1'
#1000
0'
#1005
b1100011 U
1'
#1010
0'
#1015
b1100100 U
1'
#1020
0'
#1025
b1100101 U
1'
#1030
0'
#1035
b1100110 U
1'
#1040
0'
#1045
b1100111 U
1'
#1050
0'
#1055
b1101000 U
1'
#1060
0'
#1065
b1101001 U
1'
#1070
0'
#1075
b1101010 U
1'
#1080
0'
#1085
b1101011 U
1'
#1090
0'
#1095
b1101100 U
1'
#1100
0'
#1105
b1101101 U
1'
#1110
0'
#1115
b1101110 U
1'
#1120
0'
#1125
b1101111 U
1'
#1130
0'
#1135
b1110000 U
1'
#1140
0'
#1145
b1110001 U
1'
#1150
0'
#1155
b1110010 U
1'
#1160
0'
#1165
b1110011 U
1'
#1170
0'
#1175
b1110100 U
1'
#1180
0'
#1185
b1110101 U
1'
#1190
0'
#1195
b1110110 U
1'
#1200
0'
#1205
b1110111 U
1'
#1210
0'
#1215
b1111000 U
1'
#1220
0'
#1225
b1111001 U
1'
#1230
0'
#1235
b1111010 U
1'
#1240
0'
#1245
b1111011 U
1'
#1250
0'
#1255
b1111100 U
1'
#1260
0'
#1265
b1111101 U
1'
#1270
0'
#1275
b1111110 U
1'
#1280
0'
#1285
b1111111 U
1'
#1290
0'
#1295
b10000000 U
1'
#1300
0'
#1305
b10000001 U
1'
#1310
0'
#1315
b10000010 U
1'
#1320
0'
#1325
b10000011 U
1'
#1330
0'
#1335
b10000100 U
1'
#1340
0'
#1345
b10000101 U
1'
#1350
0'
#1355
b10000110 U
1'
#1360
0'
#1365
b10000111 U
1'
#1370
0'
#1375
b10001000 U
1'
#1380
0'
#1385
b10001001 U
1'
#1390
0'
#1395
b10001010 U
1'
#1400
0'
#1405
b10001011 U
1'
#1410
0'
#1415
b10001100 U
1'
#1420
0'
#1425
b10001101 U
1'
#1430
0'
#1435
b10001110 U
1'
#1440
0'
#1445
b10001111 U
1'
#1450
0'
#1455
b10010000 U
1'
#1460
0'
#1465
b10010001 U
1'
#1470
0'
#1475
b10010010 U
1'
#1480
0'
#1485
b10010011 U
1'
#1490
0'
#1495
b10010100 U
1'
#1500
0'
#1505
b10010101 U
1'
#1510
0'
#1515
b10010110 U
1'
#1520
0'
#1525
b10010111 U
1'
#1530
0'
#1535
b10011000 U
1'
#1540
0'
#1545
b10011001 U
1'
#1550
0'
#1555
b10011010 U
1'
#1560
0'
#1565
b10011011 U
1'
#1570
0'
#1575
b10011100 U
1'
#1580
0'
#1585
b10011101 U
1'
#1590
0'
#1595
b10011110 U
1'
#1600
0'
#1605
b10011111 U
1'
#1610
0'
#1615
b10100000 U
1'
#1620
0'
#1625
b10100001 U
1'
#1630
0'
#1635
b10100010 U
1'
#1640
0'
#1645
b10100011 U
1'
#1650
0'
#1655
b10100100 U
1'
#1660
0'
#1665
b10100101 U
1'
#1670
0'
#1675
b10100110 U
1'
#1680
0'
#1685
b10100111 U
1'
#1690
0'
#1695
b10101000 U
1'
#1700
0'
#1705
b10101001 U
1'
#1710
0'
#1715
b10101010 U
1'
#1720
0'
#1725
b10101011 U
1'
#1730
0'
#1735
b10101100 U
1'
#1740
0'
#1745
b10101101 U
1'
#1750
0'
#1755
b10101110 U
1'
#1760
0'
#1765
b10101111 U
1'
#1770
0'
#1775
b10110000 U
1'
#1780
0'
#1785
b10110001 U
1'
#1790
0'
#1795
b10110010 U
1'
#1800
0'
#1805
b10110011 U
1'
#1810
0'
#1815
b10110100 U
1'
#1820
0'
#1825
b10110101 U
1'
#1830
0'
#1835
b10110110 U
1'
#1840
0'
#1845
b10110111 U
1'
#1850
0'
#1855
b10111000 U
1'
#1860
0'
#1865
b10111001 U
1'
#1870
0'
#1875
b10111010 U
1'
#1880
0'
#1885
b10111011 U
1'
#1890
0'
#1895
b10111100 U
1'
#1900
0'
#1905
b10111101 U
1'
#1910
0'
#1915
b10111110 U
1'
#1920
0'
#1925
b10111111 U
1'
#1930
0'
#1935
b11000000 U
1'
#1940
0'
#1945
b11000001 U
1'
#1950
0'
#1955
b11000010 U
1'
#1960
0'
#1965
b11000011 U
1'
#1970
0'
#1975
b11000100 U
1'
#1980
0'
#1985
b11000101 U
1'
#1990
0'
#1995
b11000110 U
1'
#2000
0'
#2005
b11000111 U
1'
#2010
0'
#2015
b11001000 U
1'
#2020
0'
#2025
b11001001 U
1'
#2030
0'
#2035
b11001010 U
1'
#2040
0'
#2045
b11001011 U
1'
#2050
0'
#2055
b11001100 U
1'
#2060
0'
#2065
b11001101 U
1'
#2070
0'
#2075
b11001110 U
1'
#2080
0'
#2085
b11001111 U
1'
#2090
0'
#2095
b11010000 U
1'
#2100
0'
#2105
b11010001 U
1'
#2110
0'
#2115
b11010010 U
1'
#2120
0'
#2125
b11010011 U
1'
#2130
0'
#2135
b11010100 U
1'
#2140
0'
#2145
b11010101 U
1'
#2150
0'
#2155
b11010110 U
1'
#2160
0'
#2165
b11010111 U
1'
#2170
0'
#2175
b11011000 U
1'
#2180
0'
#2185
b11011001 U
1'
#2190
0'
#2195
b11011010 U
1'
#2200
0'
#2205
b11011011 U
1'
#2210
0'
#2215
b11011100 U
1'
#2220
0'
#2225
b11011101 U
1'
#2230
0'
#2235
b11011110 U
1'
#2240
0'
#2245
b11011111 U
1'
#2250
0'
#2255
b11100000 U
1'
#2260
0'
#2265
b11100001 U
1'
#2270
0'
#2275
b11100010 U
1'
#2280
0'
#2285
b11100011 U
1'
#2290
0'
#2295
b11100100 U
1'
#2300
0'
#2305
b11100101 U
1'
#2310
0'
#2315
b11100110 U
1'
#2320
0'
#2325
b11100111 U
1'
#2330
0'
#2335
b11101000 U
1'
#2340
0'
#2345
b11101001 U
1'
#2350
0'
#2355
b11101010 U
1'
#2360
0'
#2365
b11101011 U
1'
#2370
0'
#2375
b11101100 U
1'
#2380
0'
#2385
b11101101 U
1'
#2390
0'
#2395
b11101110 U
1'
#2400
0'
#2405
b11101111 U
1'
#2410
0'
#2415
b11110000 U
1'
#2420
0'
#2425
b11110001 U
1'
#2430
0'
#2435
b11110010 U
1'
#2440
0'
#2445
b11110011 U
1'
#2450
0'
#2455
b11110100 U
1'
#2460
0'
#2465
b11110101 U
1'
#2470
0'
#2475
b11110110 U
1'
#2480
0'
#2485
b11110111 U
1'
#2490
0'
#2495
b11111000 U
1'
#2500
0'
#2505
b11111001 U
1'
#2510
0'
#2515
b11111010 U
1'
#2520
0'
#2525
b11111011 U
1'
#2530
0'
#2535
b11111100 U
1'
#2540
0'
#2545
b11111101 U
1'
#2550
0'
#2555
b11111110 U
1'
#2560
0'
#2565
b11111111 U
1'
#2570
0'
#2575
b100000000 U
1'
#2580
0'
#2585
b100000001 U
1'
#2590
0'
#2595
b100000010 U
1'
#2600
0'
#2605
b100000011 U
1'
#2610
0'
#2615
b100000100 U
1'
#2620
0'
#2625
b100000101 U
1'
#2630
0'
#2635
b100000110 U
1'
#2640
0'
#2645
b100000111 U
1'
#2650
0'
#2655
b100001000 U
1'
#2660
0'
#2665
b100001001 U
1'
#2670
0'
#2675
b100001010 U
1'
#2680
0'
#2685
b100001011 U
1'
#2690
0'
#2695
b100001100 U
1'
#2700
0'
#2705
b100001101 U
1'
#2710
0'
#2715
b100001110 U
1'
#2720
0'
#2725
b100001111 U
1'
#2730
0'
#2735
b100010000 U
1'
#2740
0'
#2745
b100010001 U
1'
#2750
0'
#2755
b100010010 U
1'
#2760
0'
#2765
b100010011 U
1'
#2770
0'
#2775
b100010100 U
1'
#2780
0'
#2785
b100010101 U
1'
#2790
0'
#2795
b100010110 U
1'
#2800
0'
#2805
b100010111 U
1'
#2810
0'
#2815
b100011000 U
1'
#2820
0'
#2825
b100011001 U
1'
#2830
0'
#2835
b100011010 U
1'
#2840
0'
#2845
b100011011 U
1'
#2850
0'
#2855
b100011100 U
1'
#2860
0'
#2865
b100011101 U
1'
#2870
0'
#2875
b100011110 U
1'
#2880
0'
#2885
b100011111 U
1'
#2890
0'
#2895
b100100000 U
1'
#2900
0'
#2905
b100100001 U
1'
#2910
0'
#2915
b100100010 U
1'
#2920
0'
#2925
b100100011 U
1'
#2930
0'
#2935
b100100100 U
1'
#2940
0'
#2945
b100100101 U
1'
#2950
0'
#2955
b100100110 U
1'
#2960
0'
#2965
b100100111 U
1'
#2970
0'
#2975
b100101000 U
1'
#2980
0'
#2985
b100101001 U
1'
#2990
0'
#2995
b100101010 U
1'
#3000
0'
#3005
b100101011 U
1'
#3010
0'
#3015
b100101100 U
1'
#3020
0'
#3025
b100101101 U
1'
#3030
0'
#3035
b100101110 U
1'
#3040
0'
#3045
b100101111 U
1'
#3050
0'
#3055
b100110000 U
1'
#3060
0'
#3065
b100110001 U
1'
#3070
0'
#3075
b100110010 U
1'
#3080
0'
#3085
b100110011 U
1'
#3090
0'
#3095
b100110100 U
1'
#3100
0'
#3105
b100110101 U
1'
#3110
0'
#3115
b100110110 U
1'
#3120
0'
#3125
b100110111 U
1'
#3130
0'
#3135
b100111000 U
1'
#3140
0'
#3145
b100111001 U
1'
#3150
0'
#3155
b100111010 U
1'
#3160
0'
#3165
b100111011 U
1'
#3170
0'
#3175
b100111100 U
1'
#3180
0'
#3185
b100111101 U
1'
#3190
0'
#3195
b100111110 U
1'
#3200
0'
#3205
b100111111 U
1'
#3210
0'
#3215
b101000000 U
1'
#3220
0'
#3225
b101000001 U
1'
#3230
0'
#3235
b101000010 U
1'
#3240
0'
#3245
b101000011 U
1'
#3250
0'
#3255
b101000100 U
1'
#3260
0'
#3265
b101000101 U
1'
#3270
0'
#3275
b101000110 U
1'
#3280
0'
#3285
b101000111 U
1'
#3290
0'
#3295
b101001000 U
1'
#3300
0'
#3305
b101001001 U
1'
#3310
0'
#3315
b101001010 U
1'
#3320
0'
#3325
b101001011 U
1'
#3330
0'
#3335
b101001100 U
1'
#3340
0'
#3345
b101001101 U
1'
#3350
0'
#3355
b101001110 U
1'
#3360
0'
#3365
b101001111 U
1'
#3370
0'
#3375
b101010000 U
1'
#3380
0'
#3385
b101010001 U
1'
#3390
0'
#3395
b101010010 U
1'
#3400
0'
#3405
b101010011 U
1'
#3410
0'
#3415
b101010100 U
1'
#3420
0'
#3425
b101010101 U
1'
#3430
0'
#3435
b101010110 U
1'
#3440
0'
#3445
b101010111 U
1'
#3450
0'
#3455
b101011000 U
1'
#3460
0'
#3465
b101011001 U
1'
#3470
0'
#3475
b101011010 U
1'
#3480
0'
#3485
b101011011 U
1'
#3490
0'
#3495
b101011100 U
1'
#3500
0'
#3505
b101011101 U
1'
#3510
0'
#3515
b101011110 U
1'
#3520
0'
#3525
b101011111 U
1'
#3530
0'
#3535
b101100000 U
1'
#3540
0'
#3545
b101100001 U
1'
#3550
0'
#3555
b101100010 U
1'
#3560
0'
#3565
b101100011 U
1'
#3570
0'
#3575
b101100100 U
1'
#3580
0'
#3585
b101100101 U
1'
#3590
0'
#3595
b101100110 U
1'
#3600
0'
#3605
b101100111 U
1'
#3610
0'
#3615
b101101000 U
1'
#3620
0'
#3625
b101101001 U
1'
#3630
0'
#3635
b101101010 U
1'
#3640
0'
#3645
b101101011 U
1'
#3650
0'
#3655
b101101100 U
1'
#3660
0'
#3665
b101101101 U
1'
#3670
0'
#3675
b101101110 U
1'
#3680
0'
#3685
b101101111 U
1'
#3690
0'
#3695
b101110000 U
1'
#3700
0'
#3705
b101110001 U
1'
#3710
0'
#3715
b101110010 U
1'
#3720
0'
#3725
b101110011 U
1'
#3730
0'
#3735
b101110100 U
1'
#3740
0'
#3745
b101110101 U
1'
#3750
0'
#3755
b101110110 U
1'
#3760
0'
#3765
b101110111 U
1'
#3770
0'
#3775
b101111000 U
1'
#3780
0'
#3785
b101111001 U
1'
#3790
0'
#3795
b101111010 U
1'
#3800
0'
#3805
b101111011 U
1'
#3810
0'
#3815
b101111100 U
1'
#3820
0'
#3825
b101111101 U
1'
#3830
0'
#3835
b101111110 U
1'
#3840
0'
#3845
b101111111 U
1'
#3850
0'
#3855
b110000000 U
1'
#3860
0'
#3865
b110000001 U
1'
#3870
0'
#3875
b110000010 U
1'
#3880
0'
#3885
b110000011 U
1'
#3890
0'
#3895
b110000100 U
1'
#3900
0'
#3905
b110000101 U
1'
#3910
0'
#3915
b110000110 U
1'
#3920
0'
#3925
b110000111 U
1'
#3930
0'
#3935
b110001000 U
1'
#3940
0'
#3945
b110001001 U
1'
#3950
0'
#3955
b110001010 U
1'
#3960
0'
#3965
b110001011 U
1'
#3970
0'
#3975
b110001100 U
1'
#3980
0'
#3985
b110001101 U
1'
#3990
0'
#3995
b110001110 U
1'
#4000
0'
#4005
b110001111 U
1'
#4010
0'
#4015
b110010000 U
1'
#4020
0'
#4025
b110010001 U
1'
#4030
0'
#4035
b110010010 U
1'
#4040
0'
#4045
b110010011 U
1'
#4050
0'
#4055
b110010100 U
1'
#4060
0'
#4065
b110010101 U
1'
#4070
0'
#4075
b110010110 U
1'
#4080
0'
#4085
b110010111 U
1'
#4090
0'
#4095
b110011000 U
1'
#4100
0'
#4105
b110011001 U
1'
#4110
0'
#4115
b110011010 U
1'
#4120
0'
#4125
b110011011 U
1'
#4130
0'
#4135
b110011100 U
1'
#4140
0'
#4145
b110011101 U
1'
#4150
0'
#4155
b110011110 U
1'
#4160
0'
#4165
b110011111 U
1'
#4170
0'
#4175
b110100000 U
1'
#4180
0'
#4185
b110100001 U
1'
#4190
0'
#4195
b110100010 U
1'
#4200
0'
#4205
b110100011 U
1'
#4210
0'
#4215
b110100100 U
1'
#4220
0'
#4225
b110100101 U
1'
#4230
0'
#4235
b110100110 U
1'
#4240
0'
#4245
b110100111 U
1'
#4250
0'
#4255
b110101000 U
1'
#4260
0'
#4265
b110101001 U
1'
#4270
0'
#4275
b110101010 U
1'
#4280
0'
#4285
b110101011 U
1'
#4290
0'
#4295
b110101100 U
1'
#4300
0'
#4305
b110101101 U
1'
#4310
0'
#4315
b110101110 U
1'
#4320
0'
#4325
b110101111 U
1'
#4330
0'
#4335
b110110000 U
1'
#4340
0'
#4345
b110110001 U
1'
#4350
0'
#4355
1R
b0 U
1'
#4360
0'
#4365
b1 >"
b10100101 ="
1@
0R
b1 U
1'
#4370
0'
#4375
b10 U
0?"
1'
#4380
0'
#4385
b11 U
1'
#4390
0'
#4395
b100 U
1'
#4400
0'
#4405
b101 U
1'
#4410
0'
#4415
b110 U
1'
#4420
0'
#4425
b111 U
1'
#4430
0'
#4435
b1000 U
1'
#4440
0'
#4445
b1001 U
1'
#4450
0'
#4455
b1010 U
1'
#4460
0'
#4465
b1011 U
1'
#4470
0'
#4475
b1100 U
1'
#4480
0'
#4485
b1101 U
1'
#4490
0'
#4495
b1110 U
1'
#4500
0'
#4505
b1111 U
1'
#4510
0'
#4515
b10000 U
1'
#4520
0'
#4525
b10001 U
1'
#4530
0'
#4535
b10010 U
1'
#4540
0'
#4545
b10011 U
1'
#4550
0'
#4555
b10100 U
1'
#4560
0'
#4565
b10101 U
1'
#4570
0'
#4575
b10110 U
1'
#4580
0'
#4585
b10111 U
1'
#4590
0'
#4595
b11000 U
1'
#4600
0'
#4605
b11001 U
1'
#4610
0'
#4615
b11010 U
1'
#4620
0'
#4625
b11011 U
1'
#4630
0'
#4635
b11100 U
1'
#4640
0'
#4645
b11101 U
1'
#4650
0'
#4655
b11110 U
1'
#4660
0'
#4665
b11111 U
1'
#4670
0'
#4675
b100000 U
1'
#4680
0'
#4685
b100001 U
1'
#4690
0'
#4695
b100010 U
1'
#4700
0'
#4705
b100011 U
1'
#4710
0'
#4715
b100100 U
1'
#4720
0'
#4725
b100101 U
1'
#4730
0'
#4735
b100110 U
1'
#4740
0'
#4745
b100111 U
1'
#4750
0'
#4755
b101000 U
1'
#4760
0'
#4765
b101001 U
1'
#4770
0'
#4775
b101010 U
1'
#4780
0'
#4785
b101011 U
1'
#4790
0'
#4795
b101100 U
1'
#4800
0'
#4805
b101101 U
1'
#4810
0'
#4815
b101110 U
1'
#4820
0'
#4825
b101111 U
1'
#4830
0'
#4835
b110000 U
1'
#4840
0'
#4845
b110001 U
1'
#4850
0'
#4855
b110010 U
1'
#4860
0'
#4865
b110011 U
1'
#4870
0'
#4875
b110100 U
1'
#4880
0'
#4885
b110101 U
1'
#4890
0'
#4895
b110110 U
1'
#4900
0'
#4905
b110111 U
1'
#4910
0'
#4915
b111000 U
1'
#4920
0'
#4925
b111001 U
1'
#4930
0'
#4935
b111010 U
1'
#4940
0'
#4945
b111011 U
1'
#4950
0'
#4955
b111100 U
1'
