sim/uart.vcd
$date
	Wed May 20 10:37:20 2026
$end
$version
	Icarus Verilog
$end
$timescale
	1s
$end
$scope module tb $end
$var wire 1 ! w1 $end
$var wire 1 " tx_out $end
$var wire 1 # tx_busy $end
$var wire 1 $ rx_valid $end
$var wire 8 % rx_data [7:0] $end
$var reg 1 & clk $end
$var reg 1 ' rstn $end
$var reg 8 ( tx_data [7:0] $end
$var reg 1 ) tx_start $end
$scope module DUT $end
$var wire 1 & clk $end
$var wire 1 ' rstn $end
$var wire 1 ! rx_in $end
$var wire 8 * tx_data [7:0] $end
$var wire 1 ) tx_start $end
$var wire 1 " tx_out $end
$var wire 1 # tx_busy $end
$var wire 1 $ rx_valid $end
$var wire 8 + rx_data [7:0] $end
$var wire 1 , baud_clk $end
$scope module baud_gen_inst $end
$var wire 1 & clk $end
$var wire 16 - div [15:0] $end
$var wire 1 ' rstn $end
$var parameter 32 . DIV_WIDTH $end
$var reg 1 , baud_clk $end
$var reg 16 / cnt [15:0] $end
$upscope $end
$scope module uart_rx_inst $end
$var wire 1 , baud_clk $end
$var wire 1 & clk $end
$var wire 1 ' rstn $end
$var wire 1 ! rx_in $end
$var parameter 2 0 DATA $end
$var parameter 32 1 DATA_WIDTH $end
$var parameter 2 2 IDLE $end
$var parameter 2 3 START $end
$var parameter 2 4 STOP $end
$var reg 3 5 bit_cnt [2:0] $end
$var reg 8 6 data_out [7:0] $end
$var reg 1 $ rx_valid $end
$var reg 8 7 shift_reg [7:0] $end
$var reg 2 8 state [1:0] $end
$upscope $end
$scope module uart_tx_inst $end
$var wire 1 , baud_clk $end
$var wire 1 & clk $end
$var wire 8 9 data_in [7:0] $end
$var wire 1 ' rstn $end
$var wire 1 ) tx_start $end
$var parameter 2 : DATA $end
$var parameter 32 ; DATA_WIDTH $end
$var parameter 2 < IDLE $end
$var parameter 2 = START $end
$var parameter 2 > STOP $end
$var reg 3 ? bit_cnt [2:0] $end
$var reg 8 @ shift_reg [7:0] $end
$var reg 2 A state [1:0] $end
$var reg 1 # tx_busy $end
$var reg 1 " tx_out $end
$upscope $end
$upscope $end
$upscope $end
$enddefinitions $end
$comment Show the parameter values. $end
$dumpall
b11 >
b1 =
b0 <
b1000 ;
b10 :
b11 4
b1 3
b0 2
b1000 1
b10 0
b10000 .
$end
#0
$dumpvars
bx A
bx @
bx ?
b0 9
bx 8
bx 7
bx 6
bx 5
bx /
b100 -
x,
bx +
b0 *
0)
b0 (
1'
0&
bx %
x$
x#
x"
x!
$end
#10
0,
b0 /
b0 7
0$
b0 5
b0 %
b0 +
b0 6
b0 8
0#
b0 ?
b0 @
1!
1"
b0 A
0'
1&
#20
0&
#30
b1 /
1'
1&
#40
0&
#50
b10 /
b10010010 (
b10010010 *
b10010010 9
1&
#60
0&
#70
b11 /
1&
#80
0&
#90
1)
1,
b0 /
1&
#100
0&
#110
0,
b1 /
b1 A
b10010010 @
1#
1&
#120
0&
#130
b10 /
1&
#140
0&
#150
b11 /
1&
#160
0&
#170
0)
1,
b0 /
1&
#180
0&
#190
0,
b1 /
b10 A
0!
0"
1&
#200
0&
#210
b10 /
1&
#220
0&
#230
b11 /
1&
#240
0&
#250
1,
b0 /
1&
#260
0&
#270
b10 8
0,
b1 /
b1 ?
b1001001 @
1&
#280
0&
#290
b10 /
1&
#300
0&
#310
b11 /
1&
#320
0&
#330
1,
b0 /
1&
#340
0&
#350
b1 5
0,
b1 /
b10 ?
b100100 @
1!
1"
1&
#360
0&
#370
b10 /
1&
#380
0&
#390
b11 /
1&
#400
0&
#410
1,
b0 /
1&
#420
0&
#430
b10 5
b10000000 7
0,
b1 /
b11 ?
b10010 @
0!
0"
1&
#440
0&
#450
b10 /
1&
#460
0&
#470
b11 /
1&
#480
0&
#490
1,
b0 /
1&
#500
0&
#510
b11 5
b1000000 7
0,
b1 /
b100 ?
b1001 @
1&
#520
0&
#530
b10 /
1&
#540
0&
#550
b11 /
1&
#560
0&
#570
1,
b0 /
1&
#580
0&
#590
b100 5
b100000 7
0,
b1 /
b101 ?
b100 @
1!
1"
1&
#600
0&
#610
b10 /
1&
#620
0&
#630
b11 /
1&
#640
0&
#650
1,
b0 /
1&
#660
0&
#670
b101 5
b10010000 7
0,
b1 /
b110 ?
b10 @
0!
0"
1&
#680
0&
#690
b10 /
1&
#700
0&
#710
b11 /
1&
#720
0&
#730
1,
b0 /
1&
#740
0&
#750
b110 5
b1001000 7
0,
b1 /
b111 ?
b1 @
1&
#760
0&
#770
b10 /
1&
#780
0&
#790
b11 /
1&
#800
0&
#810
1,
b0 /
1&
#820
0&
#830
b111 5
b100100 7
0,
b1 /
b11 A
b0 ?
b0 @
1!
1"
1&
#840
0&
#850
b10 /
1&
#860
0&
#870
b11 /
1&
#880
0&
#890
1,
b0 /
1&
#900
0&
#910
b11 8
b10010010 7
0,
b1 /
b0 A
0#
1&
#920
0&
#930
b10 /
1&
#940
0&
#950
b11 /
1&
#960
0&
#970
1,
b0 /
1&
#980
0&
#990
b0 8
b0 5
1$
b10010010 %
b10010010 +
b10010010 6
0,
b1 /
1&
#1000
0&
#1010
b10 /
1&
